module will

go 1.16

require (
	github.com/aliyun/alibaba-cloud-sdk-go v1.62.194
	github.com/apache/rocketmq-client-go/v2 v2.1.1
	github.com/fatih/color v1.13.0
	github.com/garyburd/redigo v1.6.4
	github.com/gin-gonic/gin v1.8.1
	github.com/go-playground/locales v0.14.0
	github.com/go-playground/universal-translator v0.18.0
	github.com/go-playground/validator/v10 v10.10.0
	github.com/goinggo/mapstructure v0.0.0-20140717182941-194205d9b4a9
	github.com/gomodule/redigo/redis v0.0.1
	github.com/google/wire v0.5.0
	github.com/jinzhu/copier v0.3.5
	github.com/jinzhu/now v1.1.5
	github.com/pkg/errors v0.9.1
	github.com/sirupsen/logrus v1.9.0
	github.com/spf13/viper v1.12.0
	github.com/stretchr/testify v1.8.0
	github.com/swaggo/files v0.0.0-20220728132757-551d4a08d97a
	github.com/swaggo/gin-swagger v1.5.2
	github.com/swaggo/swag v1.8.1
	golang.org/x/crypto v0.0.0-20220411220226-7b82a4e95df4
	gorm.io/driver/mysql v1.3.6
	gorm.io/gorm v1.23.8
)
